<?xml version="1.0" encoding="utf-8"?>
<!-- Generator: Adobe Illustrator 19.2.1, SVG Export Plug-In . SVG Version: 6.00 Build 0)  -->
<svg version="1.1" xmlns="http://www.w3.org/2000/svg" xmlns:xlink="http://www.w3.org/1999/xlink" x="0px" y="0px"
	 viewBox="0 0 1000 1000" style="enable-background:new 0 0 1000 1000;" xml:space="preserve">
<style type="text/css">
	.st0{fill:#FECA5D;}
	.st1{fill:#CC9237;}
	.st2{fill:#FFFFFF;}
	.st3{fill:none;stroke:#CC9237;stroke-width:5;stroke-miterlimit:10;}
	.st4{fill:#E5AE37;}
	.st5{fill:none;stroke:#FECA5D;stroke-width:5;stroke-miterlimit:10;}
	.st6{fill:none;stroke:#FFFFFF;stroke-width:4;stroke-miterlimit:10;}
	.st7{fill:none;stroke:#FFFFFF;stroke-width:2;stroke-miterlimit:10;}
</style>
<g id="Calque_4">
	<polygon class="st0" points="144.8,604.4 13.5,240.1 169.9,314.8 255.4,284 331,120.5 505.4,604.4 	"/>
	<polygon class="st1" points="28.9,264 95.8,355 66.1,357.3 	"/>
	<polyline class="st1" points="364.1,244.3 329.6,150 340.6,262.8 	"/>
	
		<ellipse transform="matrix(0.9877 -0.1564 0.1564 0.9877 -59.4858 58.6365)" class="st2" cx="342.9" cy="407.3" rx="55.7" ry="55.7"/>
	
		<ellipse transform="matrix(0.9877 -0.1564 0.1564 0.9877 -59.7545 58.7579)" class="st1" cx="343.5" cy="409.1" rx="29.7" ry="37.1"/>
	
		<ellipse transform="matrix(0.9877 -0.1564 0.1564 0.9877 -70.4956 34.5851)" class="st2" cx="184.5" cy="465.2" rx="55.7" ry="55.7"/>
	<polygon class="st1" points="257.9,492.4 304.1,475.8 314.1,480.4 299.9,510.6 282.5,516.8 253.3,503.1 	"/>
	<path class="st2" d="M301.7,517.3c-7.8,6.7,32.3,20.9,71.2,5.6c15.4-6,47.6-29.3,46-34.1c0,0-25.5,24.6-56.5,22.3
		C332.6,508.8,314.7,506.2,301.7,517.3z"/>
	
		<ellipse transform="matrix(0.8604 -0.5096 0.5096 0.8604 -212.1454 159.5454)" class="st1" cx="185.2" cy="467" rx="29.7" ry="37.1"/>
	<path class="st2" d="M289.3,521.8c10.3,0.2-11.5,36.7-51.3,49.7c-15.7,5.1-55.3,7.8-57.2,3c0,0,35.3,2.7,57.7-18.9
		C260.1,534.9,272.3,521.5,289.3,521.8z"/>
	<path class="st3" d="M297.6,527.6c4,11-11.4,26.6-34.4,34.9"/>
	<path class="st3" d="M298.4,527.3c4,11,25.8,13.2,48.7,4.9"/>
</g>
<g id="Calque_3">
	<polygon class="st4" points="471.7,602.5 655.3,143.6 729.5,292.7 814.6,324.5 974.6,258.2 847.8,605.1 	"/>
	<polygon class="st0" points="654.9,169.2 647,281.9 622.8,264.4 	"/>
	<polyline class="st0" points="923.2,371.1 957.9,276.9 893.3,370 	"/>
	<polygon class="st0" points="695.8,453.1 741.9,470.3 746.4,480.3 716.1,494.1 698.8,487.6 685.4,458.3 	"/>
	<path class="st5" d="M703.2,504.5c-4.1,10.9-25.9,12.9-48.8,4.3"/>
	<path class="st5" d="M703.2,504.5c-4.1,10.9,11.1,26.7,34,35.3"/>
	
		<ellipse transform="matrix(0.1682 -0.9858 0.9858 0.1682 236.7114 1166.6821)" class="st2" cx="809.6" cy="443.1" rx="42.7" ry="53.9"/>
	
		<ellipse transform="matrix(0.1682 -0.9858 0.9858 0.1682 227.2142 1156.5929)" class="st0" cx="798.9" cy="443.7" rx="33.7" ry="33.7"/>
	
		<ellipse transform="matrix(0.5198 -0.8543 0.8543 0.5198 -14.1075 747.7414)" class="st2" cx="658.1" cy="386.4" rx="42.7" ry="53.9"/>
	<path class="st0" d="M622.8,371.9c9.7-15.9,30.4-21,46.3-11.3c19.2,11.7,17.6,35.9,11.3,46.3c-9.7,15.9-30.4,21-46.3,11.3
		C618.1,408.5,613.1,387.8,622.8,371.9z"/>
	<polyline class="st0" points="819.3,389 818.3,324 883.4,323 	"/>
	<polyline class="st0" points="754.1,324.9 819.2,324 818.2,258.9 	"/>
	
		<ellipse transform="matrix(0.9999 -1.505521e-02 1.505521e-02 0.9999 -4.7848 12.3569)" class="st1" cx="818.3" cy="324" rx="9.8" ry="9.8"/>
</g>
<g id="Calque_2">
	<polygon class="st1" points="335.6,607.7 340.3,160 463.5,283.6 554.4,283.5 680.2,167.8 680.4,609.4 	"/>
	<polygon class="st0" points="349.8,184.2 382,292.4 353.3,284.5 	"/>
	<polyline class="st0" points="672.1,288.4 671.6,188 643.7,297.9 	"/>
	<polygon class="st0" points="481.4,451.1 530.6,451.1 538.3,458.8 514.8,482.4 496.3,482.4 473.5,459.6 	"/>
	<path class="st5" d="M506.4,496.7c0,11.7-19.7,21.2-44.1,21.2"/>
	<path class="st5" d="M506.4,496.7c0,11.7,19.8,21.1,44.2,21.1"/>
	<path class="st6" d="M361.9,406c31.9-29.7,81.8-28,111.6,3.9"/>
	<path class="st6" d="M642.9,405.7c-32-29.7-81.9-27.8-111.6,4.2"/>
	<path class="st7" d="M466.5,490.1c0-10.4-38.9-18.8-86.9-18.7"/>
	<path class="st7" d="M462.2,493.4c0-3.9-44.8-7-100.3-6.9"/>
	<path class="st7" d="M466.5,502.3c0,2.7-37,5-82.7,5"/>
	<path class="st7" d="M538.9,490.6c0-10.4,38.9-18.8,86.9-18.9"/>
	<path class="st7" d="M543.1,493.9c0-3.9,44.8-7.1,100.2-7.2"/>
	<path class="st7" d="M538.9,502.9c0,2.7,37,4.9,82.7,4.8"/>
</g>
<g id="Calque_1">
	<rect x="143.7" y="602.5" class="st1" width="705.5" height="13.8"/>
	<g>
		<path class="st1" d="M234.4,759.5c0.9,1.7,1.7,3.4,2.4,4.9c0.7,1.6,1.2,3.2,1.5,4.9c-3.8,1.9-8.4,3.4-13.7,4.5
			c-5.3,1.1-10.9,1.6-16.8,1.6c-8.3,0-15.8-1.4-22.6-4.1c-6.8-2.7-12.7-6.7-17.6-11.9c-4.9-5.2-8.6-11.7-11.4-19.4
			c-2.7-7.7-4.1-16.6-4.1-26.6c0-10.2,1.3-19.4,4-27.4c2.7-8,6.4-14.8,11.2-20.3c4.8-5.5,10.6-9.7,17.5-12.6
			c6.8-2.9,14.5-4.3,23-4.3c7.1,0,13.1,0.5,17.8,1.5s8.2,1.9,10.3,2.6c-0.2,2-0.5,3.8-0.9,5.1c-0.4,1.4-1,3-1.8,4.9
			c-1.5-0.5-3-0.9-4.5-1.4c-1.5-0.5-3.3-0.9-5.2-1.2c-1.9-0.3-4.2-0.6-6.7-0.9c-2.5-0.2-5.5-0.3-8.9-0.3c-6.7,0-12.7,1.2-18,3.7
			c-5.3,2.4-9.8,6-13.6,10.7c-3.7,4.7-6.6,10.3-8.6,17.1c-2,6.7-3.1,14.3-3.1,22.9c0,8.8,1.1,16.4,3.4,22.9
			c2.3,6.5,5.4,11.9,9.4,16.1c4,4.3,8.7,7.4,14.1,9.5c5.4,2,11.2,3.1,17.4,3.1c5.3,0,10.1-0.5,14.5-1.5
			C227.9,762.4,231.5,761.1,234.4,759.5z"/>
		<path class="st1" d="M263.3,650.9c0.8-0.1,1.8-0.2,2.9-0.3c1.1-0.1,2.1-0.1,3.1-0.1c1,0,2,0,3.1,0.1c1,0.1,1.9,0.1,2.7,0.3v52.2
			h60v-52.2c0.8-0.1,1.7-0.2,2.7-0.3c1-0.1,2-0.1,3.1-0.1c0.9,0,1.9,0,3.1,0.1c1.1,0.1,2.1,0.1,2.9,0.3v122.6
			c-0.7,0.1-1.6,0.2-2.6,0.3c-1.1,0.1-2.2,0.1-3.3,0.1c-1,0-2,0-3.1-0.1c-1-0.1-1.9-0.1-2.7-0.3v-59.7h-60v59.7
			c-0.8,0.1-1.7,0.2-2.7,0.3c-1,0.1-2,0.1-3.1,0.1c-1.1,0-2.2,0-3.3-0.1c-1.1-0.1-2-0.1-2.6-0.3V650.9z"/>
		<path class="st1" d="M407.9,650.9c0.8-0.1,1.9-0.2,3.2-0.3c1.4-0.1,2.6-0.1,3.7-0.1c1.2,0,2.5,0,3.8,0.1c1.3,0.1,2.3,0.1,3.1,0.3
			l40.7,122.6c-0.7,0.1-1.6,0.2-2.9,0.3c-1.2,0.1-2.4,0.1-3.6,0.1c-1,0-2.1,0-3.2-0.1c-1.1-0.1-2.1-0.1-2.9-0.3l-10.2-31.2h-50.2
			l-9.7,31.2c-0.9,0.1-2,0.2-3.1,0.3c-1.2,0.1-2.3,0.1-3.3,0.1c-1.1,0-2.3,0-3.5-0.1c-1.2-0.1-2.1-0.1-2.8-0.3L407.9,650.9z
			 M436.4,731.4l-21.9-68.2L393,731.4H436.4z"/>
		<path class="st1" d="M491.9,661.5h-32.7c-0.1-0.7-0.2-1.5-0.3-2.5c-0.1-1-0.1-1.9-0.1-2.8c0-0.8,0-1.7,0.1-2.7
			c0.1-1,0.1-1.9,0.3-2.6h77.2c0.1,0.7,0.2,1.5,0.3,2.4c0.1,0.9,0.1,1.8,0.1,2.7c0,0.8,0,1.7-0.1,2.8c-0.1,1.1-0.1,2-0.3,2.6h-32.7
			v112.1c-0.8,0.1-1.7,0.2-2.7,0.3c-1,0.1-2,0.1-3.1,0.1c-1.1,0-2.2,0-3.3-0.1c-1.1-0.1-2-0.1-2.6-0.3V661.5z"/>
		<path class="st1" d="M594.5,775.6c-8.5,0-15.9-1.6-22.2-4.7c-6.3-3.1-11.6-7.5-15.7-13.1c-4.1-5.6-7.2-12.3-9.3-20.1
			c-2.1-7.8-3.1-16.3-3.1-25.5c0-9.2,1-17.7,3.1-25.4c2.1-7.7,5.2-14.4,9.3-20c4.1-5.6,9.4-10,15.7-13.1c6.3-3.1,13.7-4.7,22.2-4.7
			s15.9,1.6,22.2,4.7c6.3,3.1,11.6,7.5,15.7,13.1c4.1,5.6,7.2,12.3,9.3,20c2.1,7.7,3.1,16.2,3.1,25.4c0,9.2-1,17.7-3.1,25.5
			c-2.1,7.8-5.2,14.5-9.3,20.1c-4.1,5.6-9.4,10-15.7,13.1C610.4,774,603,775.6,594.5,775.6z M594.5,764.8c6.6,0,12.2-1.3,17-3.8
			c4.8-2.6,8.7-6.2,11.9-10.8c3.2-4.7,5.5-10.2,7-16.7c1.5-6.5,2.3-13.6,2.3-21.3s-0.8-14.8-2.3-21.3c-1.5-6.5-3.9-12-7-16.6
			c-3.2-4.6-7.1-8.2-11.9-10.7c-4.7-2.6-10.4-3.8-17-3.8c-6.6,0-12.2,1.3-17,3.8c-4.8,2.6-8.8,6.1-11.9,10.7
			c-3.1,4.6-5.4,10.1-7,16.6c-1.5,6.5-2.3,13.6-2.3,21.3s0.8,14.8,2.3,21.3c1.5,6.5,3.8,12.1,7,16.7c3.1,4.7,7.1,8.3,11.9,10.8
			C582.2,763.6,587.9,764.8,594.5,764.8z"/>
		<path class="st1" d="M672.8,650.9c0.8-0.1,1.8-0.2,3.1-0.3c1.3-0.1,2.4-0.1,3.3-0.1c0.9,0,2,0,3.2,0.1c1.2,0.1,2.3,0.1,3.1,0.3
			l58.3,102.7V650.9c0.8-0.1,1.7-0.2,2.6-0.3c1-0.1,2-0.1,3-0.1c0.9,0,1.9,0,3,0.1c1.1,0.1,2,0.1,2.8,0.3v122.6
			c-0.7,0.1-1.7,0.2-3,0.3c-1.3,0.1-2.5,0.1-3.5,0.1c-0.9,0-2,0-3.2-0.1c-1.2-0.1-2.3-0.1-3.1-0.3l-58.3-101.8v101.8
			c-0.8,0.1-1.7,0.2-2.6,0.3c-1,0.1-2,0.1-3,0.1c-1.1,0-2.2,0-3.2-0.1c-1-0.1-1.9-0.1-2.5-0.3V650.9z"/>
		<path class="st1" d="M784.9,759.9c1.6,0.5,3.2,1,4.9,1.5c1.7,0.6,3.6,1.1,5.7,1.5c2.1,0.5,4.4,0.9,7,1.2c2.6,0.3,5.6,0.5,9,0.5
			c5.4,0,10.1-0.7,14-2c3.9-1.3,7.1-3.1,9.7-5.3c2.5-2.2,4.4-4.8,5.7-7.8c1.2-3,1.9-6.3,1.9-9.8c0-3.4-0.4-6.3-1.3-8.8
			c-0.8-2.4-2.3-4.7-4.4-6.7c-2.1-2-5-4-8.6-5.9c-3.7-1.9-8.3-3.9-13.8-6.1c-4-1.5-7.7-3.1-11.3-4.8c-3.6-1.7-6.7-3.8-9.4-6.2
			s-4.9-5.4-6.4-8.8c-1.6-3.4-2.4-7.7-2.4-12.8c0-9.2,3.3-16.7,9.9-22.3c6.6-5.7,16.3-8.5,28.9-8.5c2.5,0,5,0.1,7.5,0.3
			c2.5,0.2,4.9,0.5,7.1,0.9c2.2,0.3,4.2,0.7,6.1,1.2c1.9,0.5,3.4,0.9,4.5,1.2c-0.2,1.7-0.5,3.4-0.9,5.2c-0.4,1.8-0.9,3.4-1.4,5
			c-2.7-0.9-6.2-1.7-10.4-2.5c-4.2-0.7-8.5-1.1-12.6-1.1c-9.4,0-16.1,1.9-20.2,5.8c-4.1,3.9-6.1,8.8-6.1,14.7c0,3.1,0.6,5.7,1.9,8
			c1.2,2.3,3,4.3,5.2,6c2.2,1.7,4.8,3.3,7.9,4.7c3.1,1.4,6.3,2.8,9.8,4.2c4.7,1.9,9.2,3.9,13.3,6c4.1,2,7.7,4.4,10.6,7.2
			c2.9,2.7,5.3,5.9,7,9.6c1.7,3.7,2.5,8.2,2.5,13.4c0,5.9-1,11.2-3.1,15.8c-2.1,4.6-5.1,8.5-8.9,11.6c-3.8,3.1-8.5,5.5-14.1,7.2
			c-5.5,1.6-11.8,2.5-18.7,2.5c-6.7,0-12.2-0.5-16.6-1.4c-4.4-1-8.5-2.1-12.4-3.3c0.2-1.7,0.6-3.6,1.2-5.5
			C783.6,763.3,784.2,761.5,784.9,759.9z"/>
	</g>
</g>
</svg>
